Name(7)
=======


NAME
----
diatomz - tiny tools for log streams


SYNOPSIS
--------
----
#include <diatomz.h>

cc ['flags'] 'files' -ldiatomz ['libraries']
----


DESCRIPTION
-----------

Classes
~~~~~~~

Something.
